{
  "type": "service_account",
  "project_id": "datamuffin-playstore-345816",
  "private_key_id": "22feda132c0f108fda296fcf008d6727016a88fe",
  "private_key": "-----BEGIN PRIVATE KEY-----\nMIIEvQIBADANBgkqhkiG9w0BAQEFAASCBKcwggSjAgEAAoIBAQC+c2yGc2dJ9Qy+\nc1co7hJfhXOVAhqAlNQZz/9VS76poO7wp1cqfC9Z/NZAuO7iF81pzQbWHbmLy4MX\nnljoN1SGZF/EmC7XJnf0YtPFtJlSAfnFYXBwomBLxcgkaWDfoo1BQJW3XQ6hZs7e\nFxVLVmWZYFaF8v58eVsC+ourIQEneeYwjdsrpCsSyaMfWUsxUwnIWO0VIcV6DJTT\nSILdWXiU3lLf5wfus0TFqNlvGzMntVusYN3fmDOKb0glt0fbHnRU9Sjcth3yqsDD\nOIM1xfBORibJxYEwpsWrZ/rzWuUJoCdOf+wH/8g7VVS7Pc/XTUX0X174snqE5ZhG\nw8RcH2j1AgMBAAECggEAErNca4KnGJd+e1rxqtwJo3suo2neoVPmfxcHQDWyUI9e\ntvRaNkVAabUjx/IrdA7t8B7I4OXFTjPwY4rRubzpHf3QJjU38DoKRaMd8/KtAA+f\n73YxvMBCSrPD2HNyfDMcF1VYqMsd6yegViVtGrCD7xYLGOxdzxTOz3w7klT+JdqC\nEjUc73WIgxta4EwUCJr/MDCvQRotzVCaSCJ/iDGkrDRcNinkEWGudLa+sNFLxwY3\npu+RtTQEqZL/Q1kM1qvpbTVYMZeBU56KZPMY58/vKuoWxDHmQ6VBVw9pCC5nbDBt\nhs9NSOiIOkcUmuGBmvMhO8i5D4Xlrk6FwdRw6G/wZwKBgQD+c7y0Bejs+MBbIgtT\nV5UF6zzvrxwHRqPbm5EVTmYGFE2fTXgLcT4mGUno+GcpIK9zV8hwHGgkUX/g5eYF\nGppzSgMDjPVzKQt98rbyFd1gvE7Wt1G9j8NQqQCaI8G7MJjojj0e5bNA4o0IYrih\nMwzg1OEgH6MZVLw+SQ3bn1Qr9wKBgQC/nAQ7ssBKEgF1TRMhrhZq50Ppph6cM4Mn\nh1dUTziGwBhHozDRkX9WO3MxHNS6pOcGBWvvJbQ7XpT5L9pFPHU6Xp82R+T9pbYf\nGrtgAu8eccrnJNnkLKxH5C+/ME2FiJijOQfmssyGz4mdMJT4JkLXRcchl5aTRX1S\nJ0LRlTlfcwKBgB+HxfVk2hUrSeLBGDgunSfLm5Rz1XxNU5at8095lIjiUTARUHPS\nh4n/DjqRNW9SPouDcDH8Qydk9fyvYE53mnX40ODKwcuQZX0o62SaMwF+tCJFOxrL\nSr+fAZUYIzSH9Bq1LXu7qPe8Ww+T9B79jXX6yx7I7NQBvQXW1aHGX47HAoGBAJbn\nKrZRevta3uchAnY+As3CwUucVvMx5pMVFgQCOER3uSeCMIp8CktBmuENEcTE5mVp\nk63OhflT7gOqWj649KI5ry4yxPe2sI4ioXtmFChn+iK8dRYs0Kn13ly2j/cgswWp\nfr2EB2wMuxafElO03mNoQwIDvsTRr3cqEIe6/GpdAoGAbMr4JUGO3OgnLl0nkvvU\nBIuCKozj0Q3ZBHQ4AUgTeRv85KKK0zzisLLPns+KXdd1pzKqVYdYNXNAL6t1cuQC\nFJcIcyufPDORp+5iCkBJUs/k++jgJ2oofAwKZlmFmhXrVYvPwBtY3V8BUSBM14s9\nZAV/tUV9lTXiERJwrXuD19k=\n-----END PRIVATE KEY-----\n",
  "client_email": "proyecto-keepcoding@datamuffin-playstore-345816.iam.gserviceaccount.com",
  "client_id": "111177896491702727781",
  "auth_uri": "https://accounts.google.com/o/oauth2/auth",
  "token_uri": "https://oauth2.googleapis.com/token",
  "auth_provider_x509_cert_url": "https://www.googleapis.com/oauth2/v1/certs",
  "client_x509_cert_url": "https://www.googleapis.com/robot/v1/metadata/x509/proyecto-keepcoding%40datamuffin-playstore-345816.iam.gserviceaccount.com"
}
